Created new Lib=LibSymbol
Found Purpose name=drawing num=ffffffff
Created Layer name=device  num=230
Created Purpose name=labels num=3f5
Created Layer name=text  num=229
Opening Design Lib And netlist
  Saved design from Lib=Lib into Lib=LibSymbol
Opening Design LibSymbol And symbol
  Created label = And
  Saving "And" in symbol library named "LibSymbol"
Opening Design Lib Or netlist
  Saved design from Lib=Lib into Lib=LibSymbol
Opening Design LibSymbol Or symbol
  Created label = Or
  Saving "Or" in symbol library named "LibSymbol"
Opening Design Lib Xor netlist
  Saved design from Lib=Lib into Lib=LibSymbol
Opening Design LibSymbol Xor symbol
  Saving "Xor" in symbol library named "LibSymbol"
Opening Design Lib HalfAdder netlist
  Saved design from Lib=Lib into Lib=LibSymbol
Opening Design LibSymbol HalfAdder symbol
  Created label = HalfAdder
  Saving "HalfAdder" in symbol library named "LibSymbol"
Opening Design Lib FullAdder netlist
  Saved design from Lib=Lib into Lib=LibSymbol
Opening Design LibSymbol FullAdder symbol
  Created label = FullAdder
  Saving "FullAdder" in symbol library named "LibSymbol"
