Design LibSymbol/Xor/symbol netlist none BBOX ((0, 0) (34, 24))
Net N__0 signal 
Net N__1 signal 
Net N__2 signal 
Shape Arc at ((0, 0) (12,24)) LPP device/drawing
Shape Arc at ((22, 0) (34,24)) LPP device/drawing
Shape Arc at ((6, 0) (18,24)) LPP device/drawing
Shape Line at ((6, 0) (22,0)) LPP device/drawing
Shape Line at ((6, 24) (22,24)) LPP device/drawing
Shape Text"Xor" at ((8, 0) (26,7)) LPP text/labels
Term A on N__0 type input
Term B on N__1 type input
Term Y on N__2 type output
